Capacitación en R y herramientas de productividad
…
--

.pull-left[

```r
library(guaguas)
guaguas %>%
  group_by(nombre) %>%
  mutate(total = sum(n)) %>%
  arrange(desc(total)) %>% 
  slice(1)
```

```
## # A tibble: 2,871 x 6
## # Groups:   nombre [2,871]
##     anio sexo  nombre       n proporcion total
##    <dbl> <chr> <chr>    <int>      <dbl> <int>
##  1  1964 M     Aaron       22  0.0000758  6281
##  2  2005 M     Aarón       26  0.000109   1673
##  3  2010 F     Abby        15  0.0000571   313
##  4  2009 M     Abdiel      17  0.0000641   519
##  5  1928 M     Abdón       22  0.000406   1159
##  6  1921 M     Abel        45  0.00201    9017
##  7  1921 M     Abelardo    19  0.000847   3383
##  8  1942 F     Abelina     19  0.000138    133
##  9  1931 M     Abelino     16  0.000296    441
## 10  1950 F     Abigail     15  0.0000873  6894
## # ... with 2,861 more rows
```
…
- *names_from*: categorías que se quiere convertir en columnas
- *vaues_from*: columna desde la cual extraer los valores

---

background-image: url("imagenes/fondo2.PNG")
background-size: contain;
background-position: 100% 0%

# Tidy data

En algunos casos, no contamos con una variable que contenga texto, para hacer el "pivoteo"

```
## # A tibble: 32 x 3
## # Groups:   region [16]
##    region  sexo     n
##     <int> <int> <int>
##  1      1     1  1525
##  2      1     2  1551
##  3      2     1  1609
##  4      2     2  1681
##  5      3     1  1379
##  6      3     2  1461
##  7      4     1  2737
##  8      4     2  3069
##  9      5     1  5954
## 10      5     2  6463
## # ... with 22 more rows
```
…
